{"page":1,"results":[{"backdrop_path":"/iqtgASca7TwNuEoxJJAwLqvTsLs.jpg","id":60948,"original_name":"12 Monkeys","first_air_date":"2015-01-16","origin_country":["US"],"poster_path":"/pbEpUO80POIbER8M18Z0wEyIGAv.jpg","popularity":34.3301894688228,"name":"12 Monkeys","vote_average":8.3,"vote_count":7},{"backdrop_path":"/uh83Slq60qRSyxKFLR2ZAfUdal7.jpg","id":1431,"original_name":"CSI: Crime Scene Investigation","first_air_date":"2000-10-06","origin_country":["US"],"poster_path":"/iUlElECnCViMIV8GnJwIM4A6Fss.jpg","popularity":28.4195947284128,"name":"CSI: Crime Scene Investigation","vote_average":6.9,"vote_count":19},{"backdrop_path":"/ljik3PqnobCL9fNYJRrDD8eTuFe.jpg","id":60059,"original_name":"Better Call Saul","first_air_date":"2015-02-08","origin_country":["US"],"poster_path":"/7h5mwlX0wCBLssi6EilT7K64Pqd.jpg","popularity":28.0762067975667,"name":"Better Call Saul","vote_average":0.0,"vote_count":0},{"backdrop_path":"/mUkuc2wyV9dHLG0D0Loaw5pO2s8.jpg","id":1399,"original_name":"Game of Thrones","first_air_date":"2011-04-17","origin_country":["US"],"poster_path":"/hDd5Zd9VMOqBeHa2agbnHZ98WWr.jpg","popularity":22.7937336821095,"name":"Game of Thrones","vote_average":9.3,"vote_count":181},{"backdrop_path":"/nALNtBMQVf27H4HiSZnKNfFVvXX.jpg","id":2734,"original_name":"Law & Order: Special Victims Unit","first_air_date":"1999-09-20","origin_country":["US"],"poster_path":"/5KfFnPRIgxan2eJ7XxMkucpq8VI.jpg","popularity":18.5127167212284,"name":"Law & Order: Special Victims Unit","vote_average":7.7,"vote_count":10},{"backdrop_path":"/f8hVCHPyP8NaENdKIZrIcV4ujU6.jpg","id":61750,"original_name":"Upstairs","first_air_date":"2013-10-21","origin_country":["IT"],"poster_path":"/xuTHSbjlc3Cxsgh1afjR0QlB1SL.jpg","popularity":17.4068757446822,"name":"Upstairs","vote_average":9.4,"vote_count":92},{"backdrop_path":"/2S43MNXcwU0urA1pO9JOKp44Ouv.jpg","id":61929,"original_name":"The Jinx: The Life and Deaths of Robert Durst","first_air_date":"2015-02-08","origin_country":["US"],"poster_path":null,"popularity":15.74721794872,"name":"The Jinx: The Life and Deaths of Robert Durst","vote_average":0.0,"vote_count":0},{"backdrop_path":"/2UdgYsiRNMZLJ5UnLrjA3Bb7Tw0.jpg","id":61550,"original_name":"Marvel's Agent Carter","first_air_date":"2015-01-06","origin_country":["US"],"poster_path":"/bU7NOLyaJRQssZ3Mx7DCSCLf3Fd.jpg","popularity":13.8056488498188,"name":"Marvel's Agent Carter","vote_average":8.0,"vote_count":6},{"backdrop_path":"/pH38r4TWTqq7Mcs6XAlwgzNUeJe.jpg","id":1434,"original_name":"Family Guy","first_air_date":"1999-01-31","origin_country":["US"],"poster_path":"/gBGUL1UTUNmdRQT8gA1LUV4yg39.jpg","popularity":13.6634762796441,"name":"Family Guy","vote_average":8.1,"vote_count":40},{"backdrop_path":"/cuLM3KlPVRWkoKqBI198ZDXl843.jpg","id":31917,"original_name":"Pretty Little Liars","first_air_date":"2010-06-08","origin_country":["US"],"poster_path":"/nQZrzGd3xvVzWgeUIE3cZq7oByX.jpg","popularity":12.967071930778,"name":"Pretty Little Liars","vote_average":7.4,"vote_count":9},{"backdrop_path":"/nGzg3mn3C6fYVE0SvXHmY2XX4P2.jpg","id":1402,"original_name":"The Walking Dead","first_air_date":"2010-10-31","origin_country":["US"],"poster_path":"/48SObcY3kYvZLFzdqiSXuzNtBMu.jpg","popularity":11.9882028494423,"name":"The Walking Dead","vote_average":8.3,"vote_count":113},{"backdrop_path":"/egM9YKGiN6OFOejjoK7i6S9o2kH.jpg","id":1413,"original_name":"American Horror Story","first_air_date":"2011-10-05","origin_country":["US"],"poster_path":"/mJkFIkZUaRyA9odPGAzuBS3UPDz.jpg","popularity":11.6619949170882,"name":"American Horror Story","vote_average":7.9,"vote_count":38},{"backdrop_path":"/tPwpc9Uo1Fly50urDxfGWWk7H77.jpg","id":57243,"original_name":"Doctor Who","first_air_date":"2005-03-26","origin_country":["GB"],"poster_path":"/igDhbYQTvact1SbNDbzoeiFBGda.jpg","popularity":11.1783921042373,"name":"Doctor Who","vote_average":8.8,"vote_count":50},{"backdrop_path":"/nGsNruW3W27V6r4gkyc3iiEGsKR.jpg","id":1418,"original_name":"The Big Bang Theory","first_air_date":"2007-09-24","origin_country":["US"],"poster_path":"/1KK6ySkh8fijcjUIBksZhgdJrAX.jpg","popularity":11.0644129355237,"name":"The Big Bang Theory","vote_average":8.4,"vote_count":116},{"backdrop_path":"/l8fqxAPNmyuE5jV7wgRY0pflQlA.jpg","id":61703,"original_name":"Allegiance","first_air_date":"2015-02-05","origin_country":["US"],"poster_path":"/iTIMqhYoZko2jW6y8DzFV0fmN0F.jpg","popularity":10.1599036355904,"name":"Allegiance","vote_average":0.0,"vote_count":0},{"backdrop_path":"/dXTyVDTIgeByvUOUEiHjbi8xX9A.jpg","id":1412,"original_name":"Arrow","first_air_date":"2012-10-10","origin_country":["US","CA"],"poster_path":"/adVtiOQ5JoQR5HkyBHWfHiyNlv2.jpg","popularity":9.84170809808114,"name":"Arrow","vote_average":8.0,"vote_count":72},{"backdrop_path":"/3O4r2guye3WwLBNPTfpfecU1FBn.jpg","id":18165,"original_name":"The Vampire Diaries","first_air_date":"2009-09-10","origin_country":["US"],"poster_path":"/gueJd9RkAlELVxf29Jr8irH4peR.jpg","popularity":9.46107058554747,"name":"The Vampire Diaries","vote_average":7.8,"vote_count":22},{"backdrop_path":"/3tnJL7MvxZoseCdWcxCe7IzWvHm.jpg","id":61733,"original_name":"Empire","first_air_date":"2015-01-07","origin_country":[],"poster_path":"/oRoTT3wDFh2kg8dvNyQKR44O3ge.jpg","popularity":9.27738066866625,"name":"Empire","vote_average":7.0,"vote_count":1},{"backdrop_path":"/c0r3qQiuRvHNhdHSjlo8lrmrvAy.jpg","id":34307,"original_name":"Shameless","first_air_date":"2011-01-09","origin_country":["US"],"poster_path":"/dSBYRw1R001azIUsaatQXZAOcXk.jpg","popularity":9.14966921874676,"name":"Shameless","vote_average":8.9,"vote_count":8},{"backdrop_path":"/mmxxEpTqVdwBlu5Pii7tbedBkPC.jpg","id":60735,"original_name":"The Flash","first_air_date":"2014-10-07","origin_country":["US"],"poster_path":"/lUFK7ElGCk9kVEryDJHICeNdmd1.jpg","popularity":8.88754615035999,"name":"The Flash","vote_average":9.3,"vote_count":22}],"total_pages":3057,"total_results":61137}{"page":1,"results":[{"backdrop_path":"/iqtgASca7TwNuEoxJJAwLqvTsLs.jpg","id":60948,"original_name":"12 Monkeys","first_air_date":"2015-01-16","origin_country":["US"],"poster_path":"/pbEpUO80POIbER8M18Z0wEyIGAv.jpg","popularity":34.3301894688228,"name":"12 Monkeys","vote_average":8.3,"vote_count":7},{"backdrop_path":"/uh83Slq60qRSyxKFLR2ZAfUdal7.jpg","id":1431,"original_name":"CSI: Crime Scene Investigation","first_air_date":"2000-10-06","origin_country":["US"],"poster_path":"/iUlElECnCViMIV8GnJwIM4A6Fss.jpg","popularity":28.4195947284128,"name":"CSI: Crime Scene Investigation","vote_average":6.9,"vote_count":19},{"backdrop_path":"/ljik3PqnobCL9fNYJRrDD8eTuFe.jpg","id":60059,"original_name":"Better Call Saul","first_air_date":"2015-02-08","origin_country":["US"],"poster_path":"/7h5mwlX0wCBLssi6EilT7K64Pqd.jpg","popularity":28.0762067975667,"name":"Better Call Saul","vote_average":0.0,"vote_count":0},{"backdrop_path":"/mUkuc2wyV9dHLG0D0Loaw5pO2s8.jpg","id":1399,"original_name":"Game of Thrones","first_air_date":"2011-04-17","origin_country":["US"],"poster_path":"/hDd5Zd9VMOqBeHa2agbnHZ98WWr.jpg","popularity":22.7937336821095,"name":"Game of Thrones","vote_average":9.3,"vote_count":181},{"backdrop_path":"/nALNtBMQVf27H4HiSZnKNfFVvXX.jpg","id":2734,"original_name":"Law & Order: Special Victims Unit","first_air_date":"1999-09-20","origin_country":["US"],"poster_path":"/5KfFnPRIgxan2eJ7XxMkucpq8VI.jpg","popularity":18.5127167212284,"name":"Law & Order: Special Victims Unit","vote_average":7.7,"vote_count":10},{"backdrop_path":"/f8hVCHPyP8NaENdKIZrIcV4ujU6.jpg","id":61750,"original_name":"Upstairs","first_air_date":"2013-10-21","origin_country":["IT"],"poster_path":"/xuTHSbjlc3Cxsgh1afjR0QlB1SL.jpg","popularity":17.4068757446822,"name":"Upstairs","vote_average":9.4,"vote_count":92},{"backdrop_path":"/2S43MNXcwU0urA1pO9JOKp44Ouv.jpg","id":61929,"original_name":"The Jinx: The Life and Deaths of Robert Durst","first_air_date":"2015-02-08","origin_country":["US"],"poster_path":null,"popularity":15.74721794872,"name":"The Jinx: The Life and Deaths of Robert Durst","vote_average":0.0,"vote_count":0},{"backdrop_path":"/2UdgYsiRNMZLJ5UnLrjA3Bb7Tw0.jpg","id":61550,"original_name":"Marvel's Agent Carter","first_air_date":"2015-01-06","origin_country":["US"],"poster_path":"/bU7NOLyaJRQssZ3Mx7DCSCLf3Fd.jpg","popularity":13.8056488498188,"name":"Marvel's Agent Carter","vote_average":8.0,"vote_count":6},{"backdrop_path":"/pH38r4TWTqq7Mcs6XAlwgzNUeJe.jpg","id":1434,"original_name":"Family Guy","first_air_date":"1999-01-31","origin_country":["US"],"poster_path":"/gBGUL1UTUNmdRQT8gA1LUV4yg39.jpg","popularity":13.6634762796441,"name":"Family Guy","vote_average":8.1,"vote_count":40},{"backdrop_path":"/cuLM3KlPVRWkoKqBI198ZDXl843.jpg","id":31917,"original_name":"Pretty Little Liars","first_air_date":"2010-06-08","origin_country":["US"],"poster_path":"/nQZrzGd3xvVzWgeUIE3cZq7oByX.jpg","popularity":12.967071930778,"name":"Pretty Little Liars","vote_average":7.4,"vote_count":9},{"backdrop_path":"/nGzg3mn3C6fYVE0SvXHmY2XX4P2.jpg","id":1402,"original_name":"The Walking Dead","first_air_date":"2010-10-31","origin_country":["US"],"poster_path":"/48SObcY3kYvZLFzdqiSXuzNtBMu.jpg","popularity":11.9882028494423,"name":"The Walking Dead","vote_average":8.3,"vote_count":113},{"backdrop_path":"/egM9YKGiN6OFOejjoK7i6S9o2kH.jpg","id":1413,"original_name":"American Horror Story","first_air_date":"2011-10-05","origin_country":["US"],"poster_path":"/mJkFIkZUaRyA9odPGAzuBS3UPDz.jpg","popularity":11.6619949170882,"name":"American Horror Story","vote_average":7.9,"vote_count":38},{"backdrop_path":"/tPwpc9Uo1Fly50urDxfGWWk7H77.jpg","id":57243,"original_name":"Doctor Who","first_air_date":"2005-03-26","origin_country":["GB"],"poster_path":"/igDhbYQTvact1SbNDbzoeiFBGda.jpg","popularity":11.1783921042373,"name":"Doctor Who","vote_average":8.8,"vote_count":50},{"backdrop_path":"/nGsNruW3W27V6r4gkyc3iiEGsKR.jpg","id":1418,"original_name":"The Big Bang Theory","first_air_date":"2007-09-24","origin_country":["US"],"poster_path":"/1KK6ySkh8fijcjUIBksZhgdJrAX.jpg","popularity":11.0644129355237,"name":"The Big Bang Theory","vote_average":8.4,"vote_count":116},{"backdrop_path":"/l8fqxAPNmyuE5jV7wgRY0pflQlA.jpg","id":61703,"original_name":"Allegiance","first_air_date":"2015-02-05","origin_country":["US"],"poster_path":"/iTIMqhYoZko2jW6y8DzFV0fmN0F.jpg","popularity":10.1599036355904,"name":"Allegiance","vote_average":0.0,"vote_count":0},{"backdrop_path":"/dXTyVDTIgeByvUOUEiHjbi8xX9A.jpg","id":1412,"original_name":"Arrow","first_air_date":"2012-10-10","origin_country":["US","CA"],"poster_path":"/adVtiOQ5JoQR5HkyBHWfHiyNlv2.jpg","popularity":9.84170809808114,"name":"Arrow","vote_average":8.0,"vote_count":72},{"backdrop_path":"/3O4r2guye3WwLBNPTfpfecU1FBn.jpg","id":18165,"original_name":"The Vampire Diaries","first_air_date":"2009-09-10","origin_country":["US"],"poster_path":"/gueJd9RkAlELVxf29Jr8irH4peR.jpg","popularity":9.46107058554747,"name":"The Vampire Diaries","vote_average":7.8,"vote_count":22},{"backdrop_path":"/3tnJL7MvxZoseCdWcxCe7IzWvHm.jpg","id":61733,"original_name":"Empire","first_air_date":"2015-01-07","origin_country":[],"poster_path":"/oRoTT3wDFh2kg8dvNyQKR44O3ge.jpg","popularity":9.27738066866625,"name":"Empire","vote_average":7.0,"vote_count":1},{"backdrop_path":"/c0r3qQiuRvHNhdHSjlo8lrmrvAy.jpg","id":34307,"original_name":"Shameless","first_air_date":"2011-01-09","origin_country":["US"],"poster_path":"/dSBYRw1R001azIUsaatQXZAOcXk.jpg","popularity":9.14966921874676,"name":"Shameless","vote_average":8.9,"vote_count":8},{"backdrop_path":"/mmxxEpTqVdwBlu5Pii7tbedBkPC.jpg","id":60735,"original_name":"The Flash","first_air_date":"2014-10-07","origin_country":["US"],"poster_path":"/lUFK7ElGCk9kVEryDJHICeNdmd1.jpg","popularity":8.88754615035999,"name":"The Flash","vote_average":9.3,"vote_count":22}],"total_pages":3057,"total_results":61137}{"page":1,"results":[{"backdrop_path":"/iqtgASca7TwNuEoxJJAwLqvTsLs.jpg","id":60948,"original_name":"12 Monkeys","first_air_date":"2015-01-16","origin_country":["US"],"poster_path":"/pbEpUO80POIbER8M18Z0wEyIGAv.jpg","popularity":34.3301894688228,"name":"12 Monkeys","vote_average":8.3,"vote_count":7},{"backdrop_path":"/uh83Slq60qRSyxKFLR2ZAfUdal7.jpg","id":1431,"original_name":"CSI: Crime Scene Investigation","first_air_date":"2000-10-06","origin_country":["US"],"poster_path":"/iUlElECnCViMIV8GnJwIM4A6Fss.jpg","popularity":28.4195947284128,"name":"CSI: Crime Scene Investigation","vote_average":6.9,"vote_count":19},{"backdrop_path":"/ljik3PqnobCL9fNYJRrDD8eTuFe.jpg","id":60059,"original_name":"Better Call Saul","first_air_date":"2015-02-09","origin_country":["US"],"poster_path":"/7h5mwlX0wCBLssi6EilT7K64Pqd.jpg","popularity":28.0762067975667,"name":"Better Call Saul","vote_average":0.0,"vote_count":0},{"backdrop_path":"/mUkuc2wyV9dHLG0D0Loaw5pO2s8.jpg","id":1399,"original_name":"Game of Thrones","first_air_date":"2011-04-17","origin_country":["US"],"poster_path":"/hDd5Zd9VMOqBeHa2agbnHZ98WWr.jpg","popularity":22.7937336821095,"name":"Game of Thrones","vote_average":9.3,"vote_count":181},{"backdrop_path":"/nALNtBMQVf27H4HiSZnKNfFVvXX.jpg","id":2734,"original_name":"Law & Order: Special Victims Unit","first_air_date":"1999-09-20","origin_country":["US"],"poster_path":"/5KfFnPRIgxan2eJ7XxMkucpq8VI.jpg","popularity":18.5127167212284,"name":"Law & Order: Special Victims Unit","vote_average":7.7,"vote_count":10},{"backdrop_path":"/f8hVCHPyP8NaENdKIZrIcV4ujU6.jpg","id":61750,"original_name":"Upstairs","first_air_date":"2013-10-21","origin_country":["IT"],"poster_path":"/xuTHSbjlc3Cxsgh1afjR0QlB1SL.jpg","popularity":17.4068757446822,"name":"Upstairs","vote_average":9.4,"vote_count":92},{"backdrop_path":"/2S43MNXcwU0urA1pO9JOKp44Ouv.jpg","id":61929,"original_name":"The Jinx: The Life and Deaths of Robert Durst","first_air_date":"2015-02-08","origin_country":["US"],"poster_path":null,"popularity":15.74721794872,"name":"The Jinx: The Life and Deaths of Robert Durst","vote_average":0.0,"vote_count":0},{"backdrop_path":"/2UdgYsiRNMZLJ5UnLrjA3Bb7Tw0.jpg","id":61550,"original_name":"Marvel's Agent Carter","first_air_date":"2015-01-06","origin_country":["US"],"poster_path":"/bU7NOLyaJRQssZ3Mx7DCSCLf3Fd.jpg","popularity":13.8056488498188,"name":"Marvel's Agent Carter","vote_average":8.0,"vote_count":6},{"backdrop_path":"/pH38r4TWTqq7Mcs6XAlwgzNUeJe.jpg","id":1434,"original_name":"Family Guy","first_air_date":"1999-01-31","origin_country":["US"],"poster_path":"/gBGUL1UTUNmdRQT8gA1LUV4yg39.jpg","popularity":13.6634762796441,"name":"Family Guy","vote_average":8.1,"vote_count":40},{"backdrop_path":"/cuLM3KlPVRWkoKqBI198ZDXl843.jpg","id":31917,"original_name":"Pretty Little Liars","first_air_date":"2010-06-08","origin_country":["US"],"poster_path":"/nQZrzGd3xvVzWgeUIE3cZq7oByX.jpg","popularity":12.967071930778,"name":"Pretty Little Liars","vote_average":7.4,"vote_count":9},{"backdrop_path":"/nGzg3mn3C6fYVE0SvXHmY2XX4P2.jpg","id":1402,"original_name":"The Walking Dead","first_air_date":"2010-10-31","origin_country":["US"],"poster_path":"/48SObcY3kYvZLFzdqiSXuzNtBMu.jpg","popularity":11.9882028494423,"name":"The Walking Dead","vote_average":8.3,"vote_count":113},{"backdrop_path":"/egM9YKGiN6OFOejjoK7i6S9o2kH.jpg","id":1413,"original_name":"American Horror Story","first_air_date":"2011-10-05","origin_country":["US"],"poster_path":"/mJkFIkZUaRyA9odPGAzuBS3UPDz.jpg","popularity":11.6619949170882,"name":"American Horror Story","vote_average":7.9,"vote_count":38},{"backdrop_path":"/tPwpc9Uo1Fly50urDxfGWWk7H77.jpg","id":57243,"original_name":"Doctor Who","first_air_date":"2005-03-26","origin_country":["GB"],"poster_path":"/igDhbYQTvact1SbNDbzoeiFBGda.jpg","popularity":11.1783921042373,"name":"Doctor Who","vote_average":8.8,"vote_count":50},{"backdrop_path":"/nGsNruW3W27V6r4gkyc3iiEGsKR.jpg","id":1418,"original_name":"The Big Bang Theory","first_air_date":"2007-09-24","origin_country":["US"],"poster_path":"/1KK6ySkh8fijcjUIBksZhgdJrAX.jpg","popularity":11.0644129355237,"name":"The Big Bang Theory","vote_average":8.4,"vote_count":116},{"backdrop_path":"/l8fqxAPNmyuE5jV7wgRY0pflQlA.jpg","id":61703,"original_name":"Allegiance","first_air_date":"2015-02-05","origin_country":["US"],"poster_path":"/iTIMqhYoZko2jW6y8DzFV0fmN0F.jpg","popularity":10.1599036355904,"name":"Allegiance","vote_average":0.0,"vote_count":0},{"backdrop_path":"/dXTyVDTIgeByvUOUEiHjbi8xX9A.jpg","id":1412,"original_name":"Arrow","first_air_date":"2012-10-10","origin_country":["US","CA"],"poster_path":"/adVtiOQ5JoQR5HkyBHWfHiyNlv2.jpg","popularity":9.84170809808114,"name":"Arrow","vote_average":8.0,"vote_count":72},{"backdrop_path":"/3O4r2guye3WwLBNPTfpfecU1FBn.jpg","id":18165,"original_name":"The Vampire Diaries","first_air_date":"2009-09-10","origin_country":["US"],"poster_path":"/gueJd9RkAlELVxf29Jr8irH4peR.jpg","popularity":9.46107058554747,"name":"The Vampire Diaries","vote_average":7.8,"vote_count":22},{"backdrop_path":"/3tnJL7MvxZoseCdWcxCe7IzWvHm.jpg","id":61733,"original_name":"Empire","first_air_date":"2015-01-07","origin_country":[],"poster_path":"/oRoTT3wDFh2kg8dvNyQKR44O3ge.jpg","popularity":9.27738066866625,"name":"Empire","vote_average":7.0,"vote_count":1},{"backdrop_path":"/c0r3qQiuRvHNhdHSjlo8lrmrvAy.jpg","id":34307,"original_name":"Shameless","first_air_date":"2011-01-09","origin_country":["US"],"poster_path":"/dSBYRw1R001azIUsaatQXZAOcXk.jpg","popularity":9.14966921874676,"name":"Shameless","vote_average":8.9,"vote_count":8},{"backdrop_path":"/mmxxEpTqVdwBlu5Pii7tbedBkPC.jpg","id":60735,"original_name":"The Flash","first_air_date":"2014-10-07","origin_country":["US"],"poster_path":"/lUFK7ElGCk9kVEryDJHICeNdmd1.jpg","popularity":8.88754615035999,"name":"The Flash","vote_average":9.3,"vote_count":22}],"total_pages":3057,"total_results":61137}